C:\Release\Thu_Nov_28_16_10_52_2019\Женя\photos/file_293.jpg
was found 10 detections 
detection 0 
bbox [122, 40 | [30 x 45] ] 
Female/Male: 0.0233708 0.976629 
age 36.4657 
detection 1 
bbox [308, 56 | [23 x 32] ] 
Female/Male: 0.974659 0.0253407 
age 21.7095 
detection 2 
bbox [69, 95 | [39 x 57] ] 
Female/Male: 0.00195695 0.998043 
age 20.1006 
detection 3 
bbox [161, 125 | [37 x 47] ] 
Female/Male: 0.987281 0.0127193 
age 36.6514 
detection 4 
bbox [272, 66 | [32 x 42] ] 
Female/Male: 0.0365787 0.963421 
age 25.839 
detection 5 
bbox [245, 142 | [37 x 52] ] 
Female/Male: 0.968664 0.031336 
age 21.4073 
detection 6 
bbox [233, 49 | [24 x 33] ] 
Female/Male: 0.989594 0.0104063 
age 31.0183 
detection 7 
bbox [165, 13 | [27 x 40] ] 
Female/Male: 0.0445812 0.955419 
age 38.6251 
detection 8 
bbox [37, 59 | [29 x 42] ] 
Female/Male: 0.863894 0.136106 
age 20.8843 
detection 9 
bbox [196, 63 | [28 x 38] ] 
Female/Male: 0.943894 0.0561061 
age 22.4203 
